<?xml version="1.0" encoding="UTF-8" standalone="no"?>
<!-- Created with Inkscape (http://www.inkscape.org/) -->

<svg
   xmlns:dc="http://purl.org/dc/elements/1.1/"
   xmlns:cc="http://creativecommons.org/ns#"
   xmlns:rdf="http://www.w3.org/1999/02/22-rdf-syntax-ns#"
   xmlns:svg="http://www.w3.org/2000/svg"
   xmlns="http://www.w3.org/2000/svg"
   xmlns:sodipodi="http://sodipodi.sourceforge.net/DTD/sodipodi-0.dtd"
   xmlns:inkscape="http://www.inkscape.org/namespaces/inkscape"
   id="svg2"
   sodipodi:docname="Platillo volador.svg"
   viewBox="0 0 277.12 146.82"
   version="1.1"
   inkscape:version="0.92.4 5da689c313, 2019-01-14"
   inkscape:export-filename="/home/ja/downloads/Platillo volador.svg.png"
   inkscape:export-xdpi="69.279999"
   inkscape:export-ydpi="69.279999">
  <title
     id="title3990">Platillo volador</title>
  <defs
     id="defs4">
    <filter
       id="filter3869"
       inkscape:collect="always"
       color-interpolation-filters="sRGB">
      <feGaussianBlur
         id="feGaussianBlur3871"
         stdDeviation="0.8575149"
         inkscape:collect="always" />
    </filter>
    <filter
       id="filter3873"
       inkscape:collect="always"
       color-interpolation-filters="sRGB">
      <feGaussianBlur
         id="feGaussianBlur3875"
         stdDeviation="0.91386058"
         inkscape:collect="always" />
    </filter>
    <filter
       id="filter3877"
       inkscape:collect="always"
       color-interpolation-filters="sRGB">
      <feGaussianBlur
         id="feGaussianBlur3879"
         stdDeviation="0.47936505"
         inkscape:collect="always" />
    </filter>
    <filter
       id="filter3881"
       inkscape:collect="always"
       color-interpolation-filters="sRGB">
      <feGaussianBlur
         id="feGaussianBlur3883"
         stdDeviation="0.52284067"
         inkscape:collect="always" />
    </filter>
    <filter
       id="filter3917"
       inkscape:collect="always"
       color-interpolation-filters="sRGB">
      <feGaussianBlur
         id="feGaussianBlur3919"
         stdDeviation="0.47878537"
         inkscape:collect="always" />
    </filter>
    <filter
       id="filter3921"
       inkscape:collect="always"
       color-interpolation-filters="sRGB">
      <feGaussianBlur
         id="feGaussianBlur3923"
         stdDeviation="0.49799138"
         inkscape:collect="always" />
    </filter>
    <filter
       id="filter3925"
       inkscape:collect="always"
       color-interpolation-filters="sRGB">
      <feGaussianBlur
         id="feGaussianBlur3927"
         stdDeviation="0.915111"
         inkscape:collect="always" />
    </filter>
    <filter
       id="filter3929"
       inkscape:collect="always"
       color-interpolation-filters="sRGB">
      <feGaussianBlur
         id="feGaussianBlur3931"
         stdDeviation="0.87976028"
         inkscape:collect="always" />
    </filter>
    <filter
       id="filter3965"
       inkscape:collect="always"
       color-interpolation-filters="sRGB">
      <feGaussianBlur
         id="feGaussianBlur3967"
         stdDeviation="0.24364816"
         inkscape:collect="always" />
    </filter>
    <linearGradient
       id="linearGradient3986"
       y2="131.99"
       gradientUnits="userSpaceOnUse"
       x2="89.12"
       gradientTransform="matrix(2.3906 0 0 1.6034 -56.831 777.4)"
       y1="100.51"
       x1="88.544"
       inkscape:collect="always">
      <stop
         id="stop2992"
         style="stop-color:#e6e6e6"
         offset="0" />
      <stop
         id="stop3004"
         style="stop-color:#999999"
         offset=".18218" />
      <stop
         id="stop3002"
         style="stop-color:#b3b3b3"
         offset=".37270" />
      <stop
         id="stop3000"
         style="stop-color:#cccccc"
         offset=".56322" />
      <stop
         id="stop2998"
         style="stop-color:#b3b3b3"
         offset=".75423" />
      <stop
         id="stop2994"
         style="stop-color:#cccccc"
         offset="1" />
    </linearGradient>
    <linearGradient
       id="linearGradient3988"
       y2="131.99"
       gradientUnits="userSpaceOnUse"
       x2="89.12"
       gradientTransform="matrix(2.3906 0 0 -1.6034 -56.831 345.01)"
       y1="100.22"
       x1="89.12"
       inkscape:collect="always">
      <stop
         id="stop3012"
         style="stop-color:#b3b3b3"
         offset="0" />
      <stop
         id="stop3014"
         style="stop-color:#ececec"
         offset=".18218" />
      <stop
         id="stop3016"
         style="stop-color:#cccccc"
         offset=".37270" />
      <stop
         id="stop3018"
         style="stop-color:#999999"
         offset=".56322" />
      <stop
         id="stop3020"
         style="stop-color:#cccccc"
         offset=".75423" />
      <stop
         id="stop3022"
         style="stop-color:#ffffff"
         offset="1" />
    </linearGradient>
  </defs>
  <sodipodi:namedview
     id="base"
     bordercolor="#666666"
     inkscape:pageshadow="2"
     inkscape:window-y="0"
     fit-margin-left="0"
     pagecolor="#ffffff"
     inkscape:window-height="750"
     inkscape:window-maximized="1"
     inkscape:zoom="2.8284271"
     inkscape:window-x="0"
     showgrid="false"
     borderopacity="1.0"
     inkscape:current-layer="g3969"
     inkscape:cx="130.80513"
     inkscape:cy="83.730371"
     fit-margin-top="0"
     fit-margin-right="0"
     fit-margin-bottom="0"
     inkscape:window-width="1280"
     inkscape:pageopacity="0.0"
     inkscape:document-units="px">
    <inkscape:grid
       id="grid2988"
       enabled="true"
       visible="true"
       snapvisiblegridlinesonly="true"
       type="xygrid"
       empspacing="5" />
  </sodipodi:namedview>
  <g
     id="layer1"
     inkscape:label="Capa 1"
     inkscape:groupmode="layer"
     transform="translate(-19.69 -851.67)">
    <g
       id="g3969"
       transform="matrix(1.0924 0 0 1.0924 -10.801 -82.25)">
      <path
         id="path3034"
         sodipodi:rx="32.579315"
         sodipodi:ry="32.579315"
         style="filter:url(#filter3965);fill:#d1faff;fill-opacity:1"
         sodipodi:type="arc"
         d="m210.85 116.99c0.21298 17.992-14.2 32.75-32.191 32.963-17.762 0.21026-32.418-13.846-32.95-31.601"
         sodipodi:open="true"
         transform="matrix(1.1758 -.023884 -.023884 -1.1758 -51.496 1038)"
         sodipodi:cy="117.37229"
         sodipodi:cx="178.26851"
         sodipodi:end="9.3948122"
         sodipodi:start="6.2713483" />
      <path
         id="path2985"
         d="m279.74 937.36c0 23.568-110 50-125 50s-123.37-26.837-125-50"
         sodipodi:nodetypes="csc"
         style="fill:url(#linearGradient3986)"
         inkscape:connector-curvature="0" />
      <path
         id="path3006"
         d="m117.19 142.56c-36.807 9.61-86.344 26.86-87.44 42.47h250c0-15.835-49.645-32.934-86.781-42.469h-75.781z"
         style="fill:url(#linearGradient3988)"
         inkscape:connector-curvature="0"
         transform="translate(0 752.36)" />
      <path
         id="path3067"
         d="m124.7 895.51-80.396 41.45"
         style="filter:url(#filter3873);stroke:#000000;stroke-linecap:round;stroke-width:.99409px;fill:none"
         inkscape:connector-curvature="0" />
      <path
         id="path3069"
         d="m140.47 895.27-22.45 41.466"
         style="filter:url(#filter3877);stroke:#000000;stroke-linecap:round;stroke-width:.98036px;fill:none"
         inkscape:connector-curvature="0" />
      <path
         id="path3073"
         d="m155.25 895.39v41.522"
         sodipodi:nodetypes="cc"
         style="stroke:#000000;stroke-linecap:round;stroke-width:.97855px;fill:none"
         inkscape:connector-curvature="0" />
      <path
         id="path3075"
         style="filter:url(#filter3917);stroke:#000000;stroke-linecap:round;stroke-width:.97788px;fill:none"
         inkscape:connector-curvature="0"
         d="m169.94 895.41 22.294 41.544" />
      <path
         id="path3077"
         style="filter:url(#filter3925);stroke:#000000;stroke-linecap:round;stroke-width:.99577px;fill:none"
         inkscape:connector-curvature="0"
         d="m185.08 895.22 80.452 41.562" />
      <path
         id="path3847"
         sodipodi:nodetypes="cc"
         style="stroke:#000000;stroke-linecap:round;stroke-width:1.1474px;fill:none"
         inkscape:connector-curvature="0"
         d="m155.25 938.08v48.687" />
      <path
         id="path3849"
         style="filter:url(#filter3921);stroke:#000000;stroke-linecap:round;stroke-width:.97605px;fill:none"
         inkscape:connector-curvature="0"
         d="m192.44 937.52-19.802 46.596" />
      <path
         id="path3851"
         d="m117.64 937.34 22.403 47.309"
         style="filter:url(#filter3881);stroke:#000000;stroke-linecap:round;stroke-width:1.0461px;fill:none"
         inkscape:connector-curvature="0" />
      <path
         id="path3853"
         style="filter:url(#filter3929);stroke:#000000;stroke-linecap:round;stroke-width:.96935px;fill:none"
         inkscape:connector-curvature="0"
         transform="matrix(.99564 0 0 .98874 1.1712 10.536)"
         d="m265.6 937.75-75.119 42.183" />
      <path
         id="path3855"
         d="m44.342 937.8 72.9 41.435"
         style="filter:url(#filter3869);stroke:#000000;stroke-linecap:round;stroke-width:.94643px;fill:none"
         transform="matrix(.99548 0 0 .99236 .18808 7.1419)"
         inkscape:connector-curvature="0" />
    </g>
  </g>
  <metadata
     id="metadata58">
    <rdf:RDF>
      <cc:Work>
        <dc:format>image/svg+xml</dc:format>
        <dc:type
           rdf:resource="http://purl.org/dc/dcmitype/StillImage" />
        <cc:license
           rdf:resource="http://creativecommons.org/publicdomain/zero/1.0/" />
        <dc:publisher>
          <cc:Agent
             rdf:about="http://openclipart.org/">
            <dc:title>Openclipart</dc:title>
          </cc:Agent>
        </dc:publisher>
        <dc:title>Flying saucer. Platillo volador</dc:title>
        <dc:date>2011-03-02T18:56:52</dc:date>
        <dc:description>A classical figure of an UFO. Imagen clásica de un OVNI</dc:description>
        <dc:source>https://openclipart.org/detail/124939/flying-saucer.-platillo-volador-by-ehecatl1138</dc:source>
        <dc:creator>
          <cc:Agent>
            <dc:title>Ehecatl1138</dc:title>
          </cc:Agent>
        </dc:creator>
        <dc:subject>
          <rdf:Bag>
            <rdf:li>flaying</rdf:li>
            <rdf:li>marcianos</rdf:li>
            <rdf:li>martians</rdf:li>
            <rdf:li>ovni</rdf:li>
            <rdf:li>platillo volador</rdf:li>
            <rdf:li>saucer</rdf:li>
            <rdf:li>ufo</rdf:li>
          </rdf:Bag>
        </dc:subject>
      </cc:Work>
      <cc:License
         rdf:about="http://creativecommons.org/licenses/publicdomain/">
        <cc:permits
           rdf:resource="http://creativecommons.org/ns#Reproduction" />
        <cc:permits
           rdf:resource="http://creativecommons.org/ns#Distribution" />
        <cc:permits
           rdf:resource="http://creativecommons.org/ns#DerivativeWorks" />
      </cc:License>
    </rdf:RDF>
  </metadata>
</svg>
